{
    "total": 14,
    "per_page": 10,
    "current_page": 1,
    "last_page": 2,
    "from": 0,
    "to": 10,
    "data": [
        {
            "_id": "6374fc504af814f98ba17f39",
            "order_id": "6374fc504af814f98ba17f39",
            "brand_id": "63726f4d4d1b8ce66087454a",
            "user_id": null,
            "order_type": "offline",
            "order_items": [
                {
                    "product_id": "63739d9be9a830ac43b6b65f",
                    "quantity": 2
                },
                {
                    "product_id": "63739d9be9a830ac43b6b660",
                    "quantity": 5
                }
            ],
            "total": 84,
            "order_status": "pending",
            "timeline": [
                {
                    "message": "Order created",
                    "status": "pending",
                    "date": "2022-11-16T15:05:52.119Z"
                }
            ]
        },
        {
            "_id": "63783a767a9671d055924de5",
            "order_id": "63783a767a9671d055924de5",
            "brand_id": "63726f4d4d1b8ce66087454a",
            "user_id": "user_id",
            "order_type": "offline",
            "order_items": [
                {
                    "product_id": "63739d9be9a830ac43b6b65f",
                    "quantity": 2
                },
                {
                    "product_id": "63739d9be9a830ac43b6b660",
                    "quantity": 3
                }
            ],
            "total": 60,
            "order_status": "pending",
            "timeline": [
                {
                    "message": "Order created",
                    "status": "pending",
                    "date": "2022-11-19T02:07:50.971Z"
                }
            ]
        },
        {
            "_id": "63790472a308057e1f63e793",
            "order_id": "63790472a308057e1f63e793",
            "brand_id": "63726f4d4d1b8ce66087454a",
            "user_id": "user_id",
            "order_type": "offline",
            "order_items": [
                {
                    "product_id": "63739d9be9a830ac43b6b65f",
                    "quantity": 2
                },
                {
                    "product_id": "637446fb5966aaaf591421da",
                    "quantity": 1
                }
            ],
            "total": 36,
            "order_status": "pending",
            "timeline": [
                {
                    "message": "Order created",
                    "status": "pending",
                    "date": "2022-11-19T16:29:38.814Z"
                }
            ]
        },
        {
            "_id": "637906157bf7e7c383b9969c",
            "order_id": "637906157bf7e7c383b9969c",
            "brand_id": "63726f4d4d1b8ce66087454a",
            "user_id": "user_id",
            "order_type": "offline",
            "order_items": [
                {
                    "product_id": "63739d9be9a830ac43b6b65f",
                    "quantity": 2
                },
                {
                    "product_id": "637446fb5966aaaf591421da",
                    "quantity": 1
                }
            ],
            "total": 36,
            "order_status": "pending",
            "timeline": [
                {
                    "message": "Order created",
                    "status": "pending",
                    "date": "2022-11-19T16:36:37.002Z"
                }
            ]
        },
        {
            "_id": "6379087146fd2f343e96082a",
            "order_id": "6379087146fd2f343e96082a",
            "brand_id": "63726f4d4d1b8ce66087454a",
            "user_id": "user_id",
            "order_type": "offline",
            "order_items": [
                {
                    "product_id": "63739d9be9a830ac43b6b65f",
                    "quantity": 2
                },
                {
                    "product_id": "637446fb5966aaaf591421da",
                    "quantity": 1
                }
            ],
            "total": 36,
            "order_status": "pending",
            "timeline": [
                {
                    "message": "Order created",
                    "status": "pending",
                    "date": "2022-11-19T16:46:41.22Z"
                }
            ]
        },
        {
            "_id": "637908c146fd2f343e96082b",
            "order_id": "637908c146fd2f343e96082b",
            "brand_id": "63726f4d4d1b8ce66087454a",
            "user_id": "user_id",
            "order_type": "offline",
            "order_items": [
                {
                    "product_id": "63739d9be9a830ac43b6b65f",
                    "quantity": 2,
                    "sell_price": 13
                },
                {
                    "product_id": "637446fb5966aaaf591421da",
                    "quantity": 1,
                    "sell_price": 13
                }
            ],
            "total": 36,
            "order_status": "pending",
            "timeline": [
                {
                    "message": "Order created",
                    "status": "pending",
                    "date": "2022-11-19T16:48:01.568Z"
                }
            ]
        },
        {
            "_id": "6381a2cd9bbcf5e568baa211",
            "order_id": "6381a2cd9bbcf5e568baa211",
            "brand_id": "63726f4d4d1b8ce66087454a",
            "user_id": "user_id",
            "order_type": "offline",
            "order_items": [
                {
                    "product_id": "63739d9be9a830ac43b6b65f",
                    "quantity": 2,
                    "sell_price": 13
                },
                {
                    "product_id": "637446fb5966aaaf591421da",
                    "quantity": 1,
                    "sell_price": 13
                }
            ],
            "total": 36,
            "order_status": "pending",
            "timeline": [
                {
                    "message": "Order created",
                    "status": "pending",
                    "date": "2022-11-26T05:23:25.525Z"
                }
            ]
        },
        {
            "_id": "6381a57ef213e93a63d983c3",
            "brand_id": "63726f4d4d1b8ce66087454a",
            "user_id": "user_id",
            "order_type": "offline",
            "order_items": [
                {
                    "product_id": "63739d9be9a830ac43b6b65f",
                    "quantity": 2,
                    "sell_price": 13
                },
                {
                    "product_id": "6374472d5966aaaf591421db",
                    "quantity": 1,
                    "sell_price": 13
                }
            ]
        },
        {
            "_id": "6381a6543ea414698081e0cb",
            "brand_id": "63726f4d4d1b8ce66087454a",
            "user_id": "user_id",
            "order_type": "offline",
            "order_items": [
                {
                    "product_id": "63739d9be9a830ac43b6b65f",
                    "quantity": 2,
                    "sell_price": 13
                },
                {
                    "product_id": "6374472d5966aaaf591421db",
                    "quantity": 1,
                    "sell_price": 13
                }
            ]
        },
        {
            "_id": "6381a6f91cdeacdd055639f6",
            "order_id": "6381a6f91cdeacdd055639f6",
            "brand_id": "63726f4d4d1b8ce66087454a",
            "user_id": "user_id",
            "order_type": "offline",
            "order_items": [
                {
                    "product_id": "63739d9be9a830ac43b6b65f",
                    "quantity": 1,
                    "sell_price": 13
                },
                {
                    "product_id": "6374472d5966aaaf591421db",
                    "quantity": 1,
                    "sell_price": 13
                }
            ],
            "total": 24,
            "order_status": "pending",
            "timeline": [
                {
                    "message": "Order created",
                    "status": "pending",
                    "date": "2022-11-26T05:41:13.42Z"
                }
            ]
        }
    ]
}